<svg width="107" height="89" viewBox="0 0 107 89" fill="none" xmlns="http://www.w3.org/2000/svg">
<path fill-rule="evenodd" clip-rule="evenodd" d="M94.8539 88.7582L82.2191 58.4935L72.3023 70.4671L62.5324 61.7256L85.892 33.6647L106.607 83.4325L94.8539 88.7582ZM32.4146 55.7021L19.7799 25.4374L9.86305 37.4111L0.0931396 28.5961L23.4528 0.608643L44.1679 50.3764L32.4146 55.7021Z" fill="#221F20"/>
</svg>
